﻿["autre",
"nouveau",
"grand",
"bon",
"petit",
"même",
"dernier",
"seul",
"beau",
"jeune",
"meilleur",
"français",
"différent",
"nombreux",
"important",
"juste",
"vrai",
"politique",
"propre",
"social",
"possible",
"général",
"national",
"simple",
"plein",
"gratuit",
"gros",
"fort",
"haut",
"ancien",
"international",
"principal",
"présent",
"sêr",
"prochain",
"difficile",
"européen",
"humain",
"nécessaire",
"réel",
"facile",
"économique",
"actuel",
"disponible",
"particulier",
"blanc",
"local",
"noir",
"américain",
"professionnel",
"mauvais",
"financier",
"public",
"responsable",
"libre",
"certain",
"mondial",
"long",
"unique",
"technique",
"personnel",
"publique",
"divers",
"longue",
"véritable",
"prêt",
"étranger",
"naturel",
"internet",
"vieux",
"supérieur",
"rapide",
"chaud",
"entier",
"dur",
"suivant",
"capable",
"proche",
"moyen",
"rouge",
"complet",
"gauche",
"efficace",
"excellent",
"joli",
"commun",
"droit",
"total",
"normal",
"large",
"spécial",
"populaire",
"heureux",
"final",
"super",
"faible",
"fin",
"commercial",
"supplémentaire",
"militaire",
"court",
"physique",
"utile",
"frais",
"clair",
"vidéo",
"officiel",
"bas",
"futur",
"essentiel",
"traditionnel",
"grave",
"magnifique",
"intéressant",
"direct",
"énorme",
"relatif",
"pire",
"anglais",
"culturel",
"régional",
"vert",
"civil",
"rare",
"récent",
"précis",
"scientifique",
"puissant",
"léger",
"riche",
"doux",
"central",
"profond",
"électrique",
"précédent",
"faux",
"spécifique",
"cher",
"net",
"moderne",
"impossible",
"nul",
"original",
"pratique",
"classique",
"actif",
"médical",
"froid",
"historique",
"lourd",
"moindre",
"bleu",
"neuf",
"double",
"agréable",
"positif",
"majeur",
"collectif",
"conséquent",
"scolaire",
"numérique",
"parfait",
"quotidien",
"familial",
"idéal",
"pur",
"intérieur",
"matériel",
"individuel",
"célêbre",
"sportif",
"extérieur",
"sérieux",
"portable",
"exceptionnel",
"présidentiel",
"privé",
"dangereux",
"religieux",
"issu",
"allemand",
"évident",
"âgé",
"durable",
"africain",
"indépendant",
"alimentaire",
"global",
"virtuel",
"mobile",
"superbe",
"pauvre",
"administratif",
"fameux",
"vif",
"content",
"industriel",
"électronique",
"objectif",
"fondamental"]
